Intro a la programación en R
…
- El primer argumento es el data frame y luego la(s) variable(s) separadas por coma.
--

- `select`(<span style=" font-weight: bold;    border-radius: 4px; padding-right: 4px; padding-left: 4px; background-color: #b3e2cd !important;" >&lt;dataframe&gt;</span>, <span style=" font-weight: bold;    border-radius: 4px; padding-right: 4px; padding-left: 4px; background-color: #b3e2cd !important;" >&lt;variable&gt;</span>) 
--

.pull-left[

```r
*select(listado, host_name)
```

```
# A tibble: 20,708 x 1
   host_name       
   <chr>           
 1 Mireia And Maria
 2 Etain (Marnie)  
 3 Fidelio         
 4 Fidelio         
 5 Inge            
 6 Nick            
 7 Andres          
 8 Andres          
 9 Pablo           
10 Pablo           
# … with 20,698 more rows
```
]
.pull-rigth[

```r
*select(listado, host_id, host_name)
```

```
# A tibble: 20,708 x 2
   host_id host_name       
     <dbl> <chr>           
 1   71615 Mireia And Maria
 2   90417 Etain (Marnie)  
 3  136853 Fidelio         
 4  136853 Fidelio         
 5  141199 Inge            
 6  135703 Nick            
 7   73163 Andres          
 8   73163 Andres          
 9  152232 Pablo           
10  152232 Pablo           
# … with 20,698 more rows
```
…
---
# Seleccionar columnas/variables 

.pull-left[
Seleccionar un rango de columnas: select(<span style=" font-weight: bold;    border-radius: 4px; padding-right: 4px; padding-left: 4px; background-color: #b3e2cd !important;" >&lt;df&gt;</span>, <span style=" font-weight: bold;    border-radius: 4px; padding-right: 4px; padding-left: 4px; background-color: #b3e2cd !important;" >&lt;desde&gt;:&lt;hasta&gt;</span>)

```r
select(listado, price:number_of_reviews)
```

```
# A tibble: 20,708 x 3
   price minimum_nights number_of_reviews
   <dbl>          <dbl>             <dbl>
 1    60              1                21
 2   210              3                52
 3    52              1               186
 4    58              1                91
 5    35             29                19
 6   140              2                60
 7   100              5                 8
 8   250              4               145
 9    40              2               292
10    30              2               245
# … with 20,698 more rows
```

]
.pull-right[
Seleccionar todas las columnas menos una: select(<span style=" font-weight: bold;    border-radius: 4px; padding-right: 4px; padding-left: 4px; background-color: #b3e2cd !important;" >&lt;df&gt;</span>, <span style=" font-weight: bold;    border-radius: 4px; padding-right: 4px; padding-left: 4px; background-color: #b3e2cd !important;" >-&lt;variable&gt;</span>)

```r
select(listado, -host_name)
```

```
# A tibble: 20,708 x 15
      id name  host_id neighbourhood_g… neighbourhood latitude longitude
   <dbl> <chr>   <dbl> <chr>            <chr>            <dbl>     <dbl>
 1 18674 Huge…   71615 Eixample         la Sagrada F…     41.4      2.17
 2 23197 Foru…   90417 Sant Martí       el Besòs i e…     41.4      2.22
 3 31958 Gaud…  136853 Gràcia           el Camp d'en…     41.4      2.16
 4 32471 Gaud…  136853 Gràcia           el Camp d'en…     41.4      2.16
 5 32615 Sunn…  141199 Les Corts        les Corts         41.4      2.14
 6 32711 Sagr…  135703 Gràcia           el Camp d'en…     41.4      2.17
 7 34241 Priv…   73163 Ciutat Vella     el Barri Gòt…     41.4      2.18
 8 34981 VIDR…   73163 Ciutat Vella     el Barri Gòt…     41.4      2.18
 9 35379 Doub…  152232 Eixample         l'Antiga Esq…     41.4      2.15
10 35390 Sing…  152232 Eixample         l'Antiga Esq…     41.4      2.15
# … with 20,698 more rows, and 8 more variables: room_type <chr>, price <dbl>,
#   minimum_nights <dbl>, number_of_reviews <dbl>, last_review <date>,
#   reviews_per_month <dbl>, calculated_host_listings_count <dbl>,
#   availability_365 <dbl>
```
…
- La función <span style=" font-weight: bold;    border-radius: 4px; padding-right: 4px; padding-left: 4px; background-color: #b3e2cd !important;" >filter()</span> selecciona observaciones/filas según una condición.
--

- Puede ser una condición que involucre a una o varias variables. Condiciono a que tome o no tome ciertos valores.
--

- `filter`(<span style=" font-weight: bold;    border-radius: 4px; padding-right: 4px; padding-left: 4px; background-color: #b3e2cd !important;" >&lt;df&gt;</span>, <span style=" font-weight: bold;    border-radius: 4px; padding-right: 4px; padding-left: 4px; background-color: #b3e2cd !important;" >&lt;condicion&gt;</span>)

```r
*menor25 <- filter(listado, price < 25) # me quedo con los casos cuyo precio es menor a 25
menor25
```

```
# A tibble: 1,704 x 3
       id price room_type   
    <dbl> <dbl> <chr>       
 1 147275    14 Private room
 2 179488    22 Private room
 3 179550    20 Private room
 4 193923    20 Private room
 5 194460    21 Private room
 6 256354    23 Private room
 7 296287    24 Private room
 8 333190    18 Private room
 9 378998    20 Private room
10 384867    20 Private room
# … with 1,694 more rows
```
…
---
# Operadores de comparación 

.pull-left[
Mayor que: <span style=" font-weight: bold;    border-radius: 4px; padding-right: 4px; padding-left: 4px; background-color: #b3e2cd !important;" >&gt;</span>

```r
*filter(listado, price > 60)
```

```
# A tibble: 9,804 x 3
      id price room_type      
   <dbl> <dbl> <chr>          
 1 23197   210 Entire home/apt
 2 32711   140 Entire home/apt
 3 34241   100 Private room   
 4 34981   250 Entire home/apt
 5 40983   130 Entire home/apt
 6 49968   140 Entire home/apt
 7 50066   180 Entire home/apt
 8 58512   125 Entire home/apt
 9 61444   105 Entire home/apt
10 67065    70 Entire home/apt
# … with 9,794 more rows
```

]
.pull-rigth[
Mayor igual que: <span style=" font-weight: bold;    border-radius: 4px; padding-right: 4px; padding-left: 4px; background-color: #b3e2cd !important;" >&gt;=</span>

```r
*filter(listado, price >= 60)
```

```
# A tibble: 10,448 x 3
      id price room_type      
   <dbl> <dbl> <chr>          
 1 18674    60 Entire home/apt
 2 23197   210 Entire home/apt
 3 32711   140 Entire home/apt
 4 34241   100 Private room   
 5 34981   250 Entire home/apt
 6 40983   130 Entire home/apt
 7 49968   140 Entire home/apt
 8 50066   180 Entire home/apt
 9 58512   125 Entire home/apt
10 61444   105 Entire home/apt
# … with 10,438 more rows
```

]

---
# Operadores de comparación 

.pull-left[
Menor que: <span style=" font-weight: bold;    border-radius: 4px; padding-right: 4px; padding-left: 4px; background-color: #b3e2cd !important;" >&lt;</span>

```r
*filter(listado, price < 60)
```

```
# A tibble: 10,260 x 3
      id price room_type      
   <dbl> <dbl> <chr>          
 1 31958    52 Entire home/apt
 2 32471    58 Entire home/apt
 3 32615    35 Private room   
 4 35379    40 Private room   
 5 35390    30 Private room   
 6 35392    45 Private room   
 7 36763    30 Private room   
 8 46153    46 Entire home/apt
 9 68547    49 Private room   
10 70099    49 Private room   
# … with 10,250 more rows
```

]
.pull-rigth[

Menor igual que: <span style=" font-weight: bold;    border-radius: 4px; padding-right: 4px; padding-left: 4px; background-color: #b3e2cd !important;" >&lt;=</span>

```r
*filter(listado, price <= 60)
```

```
# A tibble: 10,904 x 3
      id price room_type      
   <dbl> <dbl> <chr>          
 1 18674    60 Entire home/apt
 2 31958    52 Entire home/apt
 3 32471    58 Entire home/apt
 4 32615    35 Private room   
 5 35379    40 Private room   
 6 35390    30 Private room   
 7 35392    45 Private room   
 8 36763    30 Private room   
 9 46153    46 Entire home/apt
10 68547    49 Private room   
# … with 10,894 more rows
```

]

---
# Operadores de comparación 

.pull-left[
Igual que: <span style=" font-weight: bold;    border-radius: 4px; padding-right: 4px; padding-left: 4px; background-color: #b3e2cd !important;" >==</span>

```r
*filter(listado, price == 60)
```

```
# A tibble: 644 x 3
       id price room_type      
    <dbl> <dbl> <chr>          
 1  18674    60 Entire home/apt
 2  71736    60 Entire home/apt
 3  74562    60 Private room   
 4 100256    60 Entire home/apt
 5 119546    60 Private room   
 6 251424    60 Private room   
 7 256677    60 Private room   
 8 322268    60 Entire home/apt
 9 326464    60 Private room   
10 359841    60 Entire home/apt
# … with 634 more rows
```

]
.pull-rigth[

Diferente que: <span style=" font-weight: bold;    border-radius: 4px; padding-right: 4px; padding-left: 4px; background-color: #b3e2cd !important;" >!=</span>

```r
*filter(listado, price != 60)
```

```
# A tibble: 20,064 x 3
      id price room_type      
   <dbl> <dbl> <chr>          
 1 23197   210 Entire home/apt
 2 31958    52 Entire home/apt
 3 32471    58 Entire home/apt
 4 32615    35 Private room   
 5 32711   140 Entire home/apt
 6 34241   100 Private room   
 7 34981   250 Entire home/apt
 8 35379    40 Private room   
 9 35390    30 Private room   
10 35392    45 Private room   
# … with 20,054 more rows
```
…
---
# Operadores lógicos

O lógico:  <span style=" font-weight: bold;    border-radius: 4px; padding-right: 4px; padding-left: 4px; background-color: #b3e2cd !important;" >|</span>

```r
# selecciono alojamienos cuyo precio es menor a 60 o mayor a 80
*filter(listado, price < 60 | price > 80)
```

```
# A tibble: 17,523 x 3
      id price room_type      
   <dbl> <dbl> <chr>          
 1 23197   210 Entire home/apt
 2 31958    52 Entire home/apt
 3 32471    58 Entire home/apt
 4 32615    35 Private room   
 5 32711   140 Entire home/apt
 6 34241   100 Private room   
 7 34981   250 Entire home/apt
 8 35379    40 Private room   
 9 35390    30 Private room   
10 35392    45 Private room   
# … with 17,513 more rows
```

---
# Operadores lógicos

Y lógico:  <span style=" font-weight: bold;    border-radius: 4px; padding-right: 4px; padding-left: 4px; background-color: #b3e2cd !important;" >&amp;</span> 

```r
# selecciono alojamientos menor a 60 y que el tipo sea Private room 
*filter(listado, price < 60 & room_type == "Private room")
```

```
# A tibble: 8,151 x 3
       id price room_type   
    <dbl> <dbl> <chr>       
 1  32615    35 Private room
 2  35379    40 Private room
 3  35390    30 Private room
 4  35392    45 Private room
 5  36763    30 Private room
 6  68547    49 Private room
 7  70099    49 Private room
 8  83283    40 Private room
 9  95719    53 Private room
10 104485    35 Private room
# … with 8,141 more rows
```
--

---
# Operadores lógicos

No lógico: <span style=" font-weight: bold;    border-radius: 4px; padding-right: 4px; padding-left: 4px; background-color: #b3e2cd !important;" >!</span>

```r
# selecciono alojamientos cuyo precio no es 60 euros
*filter(listado, !price == 60)
```

```
# A tibble: 20,064 x 3
      id price room_type      
   <dbl> <dbl> <chr>          
 1 23197   210 Entire home/apt
 2 31958    52 Entire home/apt
 3 32471    58 Entire home/apt
 4 32615    35 Private room   
 5 32711   140 Entire home/apt
 6 34241   100 Private room   
 7 34981   250 Entire home/apt
 8 35379    40 Private room   
 9 35390    30 Private room   
10 35392    45 Private room   
# … with 20,054 more rows
```
…
- <span style=" font-weight: bold;    border-radius: 4px; padding-right: 4px; padding-left: 4px; background-color: #b3e2cd !important;" >&lt;x&gt; %in% &lt;y&gt;</span>, el primer elemento de x se compara con todos los elementos de y, el segundo elemento de x se compara con todos los elementos de y, así sucesivamente. 
--

- Devuelve un TRUE o un FALSE en cada comparación. TRUE cuando el elemento de x está en y, FALSE en caso contrario.
--

- Cuando lo uso en `filter()` se queda con los TRUE. 

```r
# selecciono alojamientos cuyo tipo sea Private room  o Entire home/apt
filter(listado, room_type %in% c("Private room", "Entire home/apt"))
```

```
# A tibble: 19,990 x 3
      id price room_type      
   <dbl> <dbl> <chr>          
 1 18674    60 Entire home/apt
 2 23197   210 Entire home/apt
 3 31958    52 Entire home/apt
 4 32471    58 Entire home/apt
 5 32615    35 Private room   
 6 32711   140 Entire home/apt
 7 34241   100 Private room   
 8 34981   250 Entire home/apt
 9 35379    40 Private room   
10 35390    30 Private room   
# … with 19,980 more rows
```

En este caso es lo mismo que:

```r
# selecciono alojamientos menor a 60 y que el tipo sea Private room 
filter(listado, room_type == "Private room" | room_type == "Entire home/apt")
```

```
# A tibble: 19,990 x 3
      id price room_type      
   <dbl> <dbl> <chr>          
 1 18674    60 Entire home/apt
 2 23197   210 Entire home/apt
 3 31958    52 Entire home/apt
 4 32471    58 Entire home/apt
 5 32615    35 Private room   
 6 32711   140 Entire home/apt
 7 34241   100 Private room   
 8 34981   250 Entire home/apt
 9 35379    40 Private room   
10 35390    30 Private room   
# … with 19,980 more rows
```
…
--

.pull-right[

```r
*count(listado, room_type, neighbourhood)
```

```
# A tibble: 206 x 3
   room_type       neighbourhood                                    n
   <chr>           <chr>                                        <int>
 1 Entire home/apt Baró de Viver                                    1
 2 Entire home/apt Can Baró                                        23
 3 Entire home/apt Canyelles                                        1
 4 Entire home/apt Diagonal Mar i el Front Marítim del Poblenou   108
 5 Entire home/apt el Baix Guinardó                                56
 6 Entire home/apt el Barri Gòtic                                 597
 7 Entire home/apt el Besòs i el Maresme                           64
 8 Entire home/apt el Bon Pastor                                    3
 9 Entire home/apt el Camp de l'Arpa del Clot                     167
10 Entire home/apt el Camp d'en Grassot i Gràcia Nova             170
# … with 196 more rows
```
…
